\relax 
\providecommand\@newglossary[4]{}
\@newglossary{main}{glg}{gls}{glo}
\@writefile{toc}{\contentsline {section}{\numberline {1}Equazioni del moto e dinamica}{1}\protected@file@percent }
\@writefile{toc}{\contentsline {subsection}{\numberline {1.1}Cinematica}{1}\protected@file@percent }
\@writefile{lof}{\contentsline {figure}{\numberline {1}{\ignorespaces Graph of the inverted pendulum.}}{1}\protected@file@percent }
\newlabel{fig:invertedpendulum}{{1}{1}}
\@writefile{toc}{\contentsline {subsection}{\numberline {1.2}Dinamica}{2}\protected@file@percent }
\@writefile{toc}{\contentsline {subsection}{\numberline {1.3}Linearizzazione}{2}\protected@file@percent }
\newlabel{nominale}{{1}{2}}
\newlabel{descriptor}{{2}{3}}
\@writefile{toc}{\contentsline {section}{\numberline {2}Design del controllo}{4}\protected@file@percent }
\newlabel{controllerdiag}{{3}{4}}
\newlabel{gain}{{4}{4}}
\@writefile{lof}{\contentsline {figure}{\numberline {2}{\ignorespaces Block diagram of first example of dynamic controller}}{5}\protected@file@percent }
\newlabel{fig:controller}{{2}{5}}
\@writefile{toc}{\contentsline {subsection}{\numberline {2.1}LQG}{6}\protected@file@percent }
\@writefile{lof}{\contentsline {figure}{\numberline {3}{\ignorespaces Block diagram of Linear Quadratic Gaussian Controller}}{7}\protected@file@percent }
\newlabel{fig:lqg}{{3}{7}}
\newlabel{formadyn}{{5}{7}}
\newlabel{match}{{7}{7}}
