\relax 
\@writefile{toc}{\contentsline {section}{\numberline {1}Problem}{1}\protected@file@percent }
\newlabel{sum0}{{5}{1}}
\@writefile{toc}{\contentsline {subsection}{\numberline {1.1}Tentative 1}{2}\protected@file@percent }
\newlabel{tentative1}{{6}{2}}
\newlabel{tentetive2}{{7}{2}}
\@writefile{toc}{\contentsline {subsection}{\numberline {1.2}Tentative 2}{3}\protected@file@percent }
\@writefile{toc}{\contentsline {subsection}{\numberline {1.3}Tentative 3}{3}\protected@file@percent }
\newlabel{tentative3}{{8}{3}}
