\relax 
\@writefile{toc}{\contentsline {section}{\numberline {1}New Hypothesis}{1}\protected@file@percent }
\newlabel{raggio1}{{1}{1}}
\newlabel{raggio2}{{2}{1}}
\newlabel{pdefinite}{{3}{1}}
\newlabel{LMI}{{4}{1}}
