This is BibTeX, Version 0.99d (TeX Live 2020/Arch Linux)
Capacity: max_strings=100000, hash_size=100000, hash_prime=85009
The top-level auxiliary file: draft.aux
The style file: plain.bst
Database file #1: references.bib
Warning--to sort, need author or key in Polytope2020
Warning--to sort, need author or key in CaratheodoryTheoremConvex2020
Warning--empty author in CaratheodoryTheoremConvex2020
Warning--empty author in Polytope2020
Warning--empty publisher in boydLinearMatrixInequalities
Warning--empty year in boydLinearMatrixInequalities
You've used 8 entries,
            2118 wiz_defined-function locations,
            547 strings with 5425 characters,
and the built_in function-call counts, 2183 in all, are:
= -- 208
> -- 88
< -- 2
+ -- 37
- -- 28
* -- 162
:= -- 357
add.period$ -- 22
call.type$ -- 8
change.case$ -- 37
chr.to.int$ -- 0
cite$ -- 14
duplicate$ -- 90
empty$ -- 182
format.name$ -- 28
if$ -- 451
int.to.chr$ -- 0
int.to.str$ -- 8
missing$ -- 9
newline$ -- 40
num.names$ -- 12
pop$ -- 46
preamble$ -- 1
purify$ -- 30
quote$ -- 0
skip$ -- 63
stack$ -- 0
substring$ -- 101
swap$ -- 15
text.length$ -- 2
text.prefix$ -- 0
top$ -- 0
type$ -- 28
warning$ -- 6
while$ -- 19
width$ -- 9
write$ -- 80
(There were 6 warnings)
