\relax 
\providecommand\@newglossary[4]{}
\@newglossary{main}{glg}{gls}{glo}
\providecommand\@glsorder[1]{}
\providecommand\@istfilename[1]{}
\@istfilename{draft.ist}
\@glsorder{word}
\citation{ebiharaSVariableApproachLMIBased2015}
\citation{peaucelleAdaptiveControlDesign2018}
\@writefile{toc}{\contentsline {chapter}{\numberline {1}Theory Recall}{9}\protected@file@percent }
\@writefile{lof}{\addvspace {10\p@ }}
\@writefile{lot}{\addvspace {10\p@ }}
\newlabel{chap1}{{1}{9}}
\@writefile{toc}{\contentsline {section}{\numberline {1.1}Stability}{9}\protected@file@percent }
\@writefile{toc}{\contentsline {subsection}{\numberline {1.1.1}Lyapunov's Theory}{9}\protected@file@percent }
\newlabel{nlsys}{{1.1}{9}}
\newlabel{LTInoinput}{{1.2}{9}}
\citation{hassank.khalilNonlinearSystems3rd}
\newlabel{lyapt}{{1.5}{10}}
\newlabel{LTIinput}{{1.6}{11}}
\@writefile{lof}{\contentsline {figure}{\numberline {1.1}{\ignorespaces LTI system with state-feedback loop.\relax }}{11}\protected@file@percent }
\providecommand*\caption@xref[2]{\@setref\relax\@undefined{#1}}
\newlabel{fig:polysfeedbackloop}{{1.1}{11}}
\newlabel{stablefeedback}{{1.1.1}{11}}
\citation{hassank.khalilNonlinearSystems3rd}
\citation{boydLinearMatrixInequalities}
\newlabel{lasalle}{{1.1.2}{12}}
\@writefile{toc}{\contentsline {subsection}{\numberline {1.1.2}Linear Matrix Inequalities}{12}\protected@file@percent }
\newlabel{LMIsec}{{1.1.2}{12}}
\newlabel{lmi}{{1.7}{12}}
\citation{ebiharaSVariableApproachLMIBased2015}
\@writefile{toc}{\contentsline {subsection}{\numberline {1.1.3}S-Variable Approach}{13}\protected@file@percent }
\newlabel{stabconditions}{{1.1.3}{13}}
\newlabel{cond1SV}{{1.8}{14}}
\newlabel{cond2SV}{{1.9}{14}}
\newlabel{sprocedure}{{1.1.4}{14}}
\newlabel{miserve}{{1.10}{15}}
\citation{ebiharaSVariableApproachLMIBased2015}
\newlabel{finsler}{{1.1.1}{16}}
\newlabel{elimination}{{1.1.2}{16}}
\@writefile{toc}{\contentsline {subsection}{\numberline {1.1.4}Performance Evaluation of Systems}{16}\protected@file@percent }
\newlabel{LTInoise1}{{1.11}{16}}
\newlabel{LTInoise2}{{1.12}{16}}
\newlabel{H2}{{1.13}{17}}
\citation{ebiharaSVariableApproachLMIBased2015}
\newlabel{Hinf}{{1.20}{18}}
\newlabel{FDI}{{1.23}{18}}
\citation{ebiharaSVariableApproachLMIBased2015}
\citation{rantzerKalmanYakubovichPopov1996}
\newlabel{impulsetopeak}{{1.27}{19}}
\@writefile{toc}{\contentsline {section}{\numberline {1.2}Descriptor Form}{20}\protected@file@percent }
\newlabel{descriptorchap}{{1.2}{20}}
\@writefile{toc}{\contentsline {subsection}{\numberline {1.2.1}Systems in Descriptor Form}{20}\protected@file@percent }
\newlabel{statespace}{{1.29}{20}}
\newlabel{normaldescriptor}{{1.30}{20}}
\newlabel{descriptorform}{{1.31}{20}}
\@writefile{lof}{\contentsline {figure}{\numberline {1.2}{\ignorespaces Quarter Car Suspension Schematic\relax }}{21}\protected@file@percent }
\newlabel{fig:quarter}{{1.2}{21}}
\citation{vergheseGeneralizedStatespaceSingular1981}
\citation{ebiharaSVariableApproachLMIBased2015}
\@writefile{toc}{\contentsline {subsection}{\numberline {1.2.2}Stability of Descriptor Systems}{23}\protected@file@percent }
\newlabel{stabdescrsys}{{1.2.2}{23}}
\citation{ebiharaSVariableApproachLMIBased2015}
\newlabel{descrstabt}{{1.2.1}{24}}
\newlabel{descrstab}{{1.34a}{24}}
\newlabel{lyapfuncdescr}{{1.35}{25}}
\citation{Polytope2020}
\@writefile{toc}{\contentsline {section}{\numberline {1.3}Polytopic Systems and Robust Stability}{26}\protected@file@percent }
\newlabel{polysystemssec}{{1.3}{26}}
\@writefile{toc}{\contentsline {subsection}{\numberline {1.3.1}Polytopes and Polytopic Systems}{26}\protected@file@percent }
\@writefile{lof}{\contentsline {figure}{\numberline {1.3}{\ignorespaces Simplex in $\mathbbm  {R}^{3}$\relax }}{26}\protected@file@percent }
\newlabel{fig:standardsimplex}{{1.3}{26}}
\newlabel{standardsimplex}{{1.36}{26}}
\@writefile{lof}{\contentsline {figure}{\numberline {1.4}{\ignorespaces Representation of a Polytopic uncertain system with 2 uncertainties. The highlighted rectangle is the space of all possible convex combinations.\relax }}{27}\protected@file@percent }
\newlabel{fig:polysystem}{{1.4}{27}}
\newlabel{polysystem}{{1.37}{27}}
\@writefile{lof}{\contentsline {figure}{\numberline {1.5}{\ignorespaces Representation of a Polytopic Uncertain System with a multiaffine approach. The modelset remains the same as \textup  {\hbox {\mathsurround \z@ \normalfont  (\ignorespaces 1.4\hbox {}\unskip \@@italiccorr )}}.\relax }}{28}\protected@file@percent }
\newlabel{fig:multiaffinesys}{{1.5}{28}}
\newlabel{multiaffineindex}{{1.38}{28}}
\newlabel{multiaffine}{{1.39}{28}}
\citation{CaratheodoryTheoremConvex2020}
\citation{ebiharaSVariableApproachLMIBased2015}
\citation{ebiharaSVariableApproachLMIBased2015}
\citation{ebiharaSVariableApproachLMIBased2015}
\citation{ebiharaSVariableApproachLMIBased2015}
\newlabel{descrrational}{{1.40}{30}}
\@writefile{toc}{\contentsline {subsection}{\numberline {1.3.2}Robust Stability}{30}\protected@file@percent }
\newlabel{lyappoly}{{1.42}{30}}
\@writefile{toc}{\contentsline {subsection}{\numberline {1.3.3}Robust Performance Analysis}{31}\protected@file@percent }
\newlabel{Gxi}{{1.44}{31}}
\newlabel{robustimpulse}{{1.48}{32}}
\@writefile{toc}{\contentsline {subsection}{\numberline {1.3.4}Robust Stability in Descriptor Form}{32}\protected@file@percent }
\newlabel{polydescrsys1}{{1.50}{32}}
\newlabel{matrixfactorization}{{1.3.1}{32}}
\newlabel{theoremrobustdescr}{{1.51}{33}}
\citation{peaucelleAdaptiveControlDesign2018}
\@writefile{toc}{\contentsline {chapter}{\numberline {2}Problem Statement}{35}\protected@file@percent }
\@writefile{lof}{\addvspace {10\p@ }}
\@writefile{lot}{\addvspace {10\p@ }}
\newlabel{chap5}{{2}{35}}
\@writefile{toc}{\contentsline {section}{\numberline {2.1}System and Objective}{35}\protected@file@percent }
\newlabel{system}{{2.1}{35}}
\newlabel{out}{{2.2}{35}}
\@writefile{toc}{\contentsline {section}{\numberline {2.2}The Control Law}{36}\protected@file@percent }
\newlabel{controllaw}{{2.2}{36}}
\newlabel{control}{{2.3}{36}}
\newlabel{adaptivek}{{2.4}{36}}
\newlabel{saturate}{{2.5}{36}}
\newlabel{adaptive}{{2.6}{36}}
\citation{peaucelleAdaptiveControlDesign2018}
\newlabel{kvar}{{2.8}{37}}
\newlabel{Rdis}{{2.9}{37}}
\newlabel{qmagg}{{2.10}{37}}
\@writefile{toc}{\contentsline {section}{\numberline {2.3}Rewriting of the System Equations}{37}\protected@file@percent }
\newlabel{squareeqs}{{2.3}{37}}
\newlabel{dyncontroller}{{2.11}{38}}
\newlabel{squaredescr}{{2.12}{38}}
\newlabel{genLFT}{{2.16}{38}}
\@writefile{lof}{\contentsline {figure}{\numberline {2.1}{\ignorespaces Block Diagram of LFT. \relax }}{39}\protected@file@percent }
\newlabel{fig:LFT}{{2.1}{39}}
\newlabel{controllerdiag}{{2.18}{39}}
\newlabel{LFT1}{{2.19}{39}}
\newlabel{LFT2}{{2.20}{39}}
\citation{peaucelleAdaptiveControlDesign2018}
\newlabel{squaresys}{{2.23}{40}}
\@writefile{toc}{\contentsline {section}{\numberline {2.4}Previous Results}{40}\protected@file@percent }
\newlabel{prevresults}{{2.4}{40}}
\newlabel{dimitriassumption}{{2.4.1}{40}}
\newlabel{E2PE2}{{2.24}{40}}
\newlabel{startdimitri}{{2.25}{41}}
\newlabel{t1}{{2.26}{41}}
\newlabel{t2}{{2.27}{41}}
\newlabel{t3}{{2.28}{41}}
\citation{peaucelleAdaptiveControlDesign2018}
\citation{peaucelleAdaptiveControlDesign2018}
\newlabel{t4}{{2.29}{42}}
\@writefile{toc}{\contentsline {subsection}{\numberline {2.4.1}Optimization Algorithm}{42}\protected@file@percent }
\citation{peaucelleAdaptiveControlDesign2018}
\@writefile{toc}{\contentsline {chapter}{\numberline {3}Main Results}{45}\protected@file@percent }
\@writefile{lof}{\addvspace {10\p@ }}
\@writefile{lot}{\addvspace {10\p@ }}
\@writefile{toc}{\contentsline {section}{\numberline {3.1}Assumptions on the Polytope}{45}\protected@file@percent }
\newlabel{assumptionspolytope}{{3.1}{45}}
\newlabel{Assumption1}{{3.1.1}{45}}
\newlabel{bound_1}{{3.1.1}{45}}
\newlabel{lemma1}{{3.1}{46}}
\newlabel{forma1}{{3.4}{47}}
\newlabel{multiaffineP}{{3.5}{47}}
\newlabel{Pdmatrix}{{3.7}{47}}
\newlabel{multiaffineder}{{3.8}{48}}
\newlabel{derboundss}{{3.1}{48}}
\newlabel{multiaffinedotP}{{3.9}{48}}
\citation{peaucelleAdaptiveControlDesign2018}
\@writefile{toc}{\contentsline {section}{\numberline {3.2}First Set of Conditions}{49}\protected@file@percent }
\newlabel{raggio1}{{3.10}{49}}
\newlabel{raggio2}{{3.11}{49}}
\citation{peaucelleAdaptiveControlDesign2018}
\citation{peaucelleAdaptiveControlDesign2018}
\newlabel{pdefinite}{{3.12}{50}}
\newlabel{LMI_1}{{3.13}{50}}
\newlabel{datamatrices}{{3.14}{50}}
\newlabel{modification}{{3.15}{50}}
\newlabel{theorem1}{{3.2.1}{50}}
\newlabel{result1}{{3.16}{50}}
\newlabel{lyap}{{3.17}{50}}
\newlabel{LMIall}{{3.18a}{51}}
\newlabel{LMI_exp}{{3.19}{52}}
\newlabel{cong_vector}{{3.20}{52}}
\newlabel{congr}{{3.21}{55}}
\newlabel{derlyap}{{3.23}{55}}
\newlabel{initbound}{{3.24}{56}}
\@writefile{toc}{\contentsline {section}{\numberline {3.3}Second Set of Conditions}{57}\protected@file@percent }
\newlabel{raggio1bis}{{3.29}{57}}
\newlabel{raggio2bis}{{3.30}{57}}
\newlabel{pdefinitebis}{{3.31}{57}}
\citation{peaucelleAdaptiveControlDesign2018}
\newlabel{LMI_1bis}{{3.32}{58}}
\newlabel{result1}{{3.33}{58}}
\newlabel{lyap}{{3.34}{58}}
\newlabel{LMIsimplebis}{{3.35}{59}}
\newlabel{LMIall2}{{3.36}{59}}
\newlabel{congr1}{{3.37}{59}}
\newlabel{quellochemiserve}{{3.38}{59}}
\newlabel{underwhelming}{{3.40}{60}}
\newlabel{result2}{{3.43}{60}}
\@writefile{toc}{\contentsline {section}{\numberline {3.4}Performances and Stability}{60}\protected@file@percent }
\@writefile{toc}{\contentsline {subsection}{\numberline {3.4.1}Practical Stability}{61}\protected@file@percent }
\newlabel{lyapgrezzo}{{3.44}{61}}
\newlabel{boundgrezzo}{{3.45}{61}}
\newlabel{boundbrutto}{{3.46}{61}}
\citation{peaucelleAdaptiveControlDesign2018}
\newlabel{l1}{{3.47}{62}}
\@writefile{toc}{\contentsline {subsection}{\numberline {3.4.2}Practical $L_{2}$ Performance}{62}\protected@file@percent }
\citation{peaucelleAdaptiveControlDesign2018}
\@writefile{toc}{\contentsline {chapter}{\numberline {4}Example of Procedure}{65}\protected@file@percent }
\@writefile{lof}{\addvspace {10\p@ }}
\@writefile{lot}{\addvspace {10\p@ }}
\@writefile{toc}{\contentsline {section}{\numberline {4.1}Modeling}{65}\protected@file@percent }
\@writefile{lof}{\contentsline {figure}{\numberline {4.1}{\ignorespaces Schematic of the system.\relax }}{65}\protected@file@percent }
\newlabel{fig:invpend}{{4.1}{65}}
\newlabel{linearizedpend}{{4.1}{67}}
\@writefile{toc}{\contentsline {section}{\numberline {4.2}Controller}{69}\protected@file@percent }
\@writefile{lof}{\contentsline {figure}{\numberline {4.2}{\ignorespaces LQG controller block diagram.\relax }}{69}\protected@file@percent }
\newlabel{LQGblock}{{4.2}{69}}
\bibstyle{plain}
\bibdata{references}
\@writefile{toc}{\contentsline {chapter}{\numberline {5}Conclusion}{71}\protected@file@percent }
\@writefile{lof}{\addvspace {10\p@ }}
\@writefile{lot}{\addvspace {10\p@ }}
\bibcite{CaratheodoryTheoremConvex2020}{1}
\bibcite{Polytope2020}{2}
\bibcite{boydLinearMatrixInequalities}{3}
\bibcite{ebiharaSVariableApproachLMIBased2015}{4}
\bibcite{hassank.khalilNonlinearSystems3rd}{5}
\bibcite{peaucelleAdaptiveControlDesign2018}{6}
\bibcite{rantzerKalmanYakubovichPopov1996}{7}
\bibcite{vergheseGeneralizedStatespaceSingular1981}{8}
