This is BibTeX, Version 0.99d (TeX Live 2019/W32TeX)
Capacity: max_strings=100000, hash_size=100000, hash_prime=85009
The top-level auxiliary file: ifacconf.aux
The style file: ifacconf.bst
Database file #1: ifacconf.bib
You've used 21 entries,
            2921 wiz_defined-function locations,
            715 strings with 8667 characters,
and the built_in function-call counts, 13835 in all, are:
= -- 1129
> -- 572
< -- 9
+ -- 215
- -- 186
* -- 1003
:= -- 2066
add.period$ -- 69
call.type$ -- 21
change.case$ -- 174
chr.to.int$ -- 21
cite$ -- 21
duplicate$ -- 1028
empty$ -- 1071
format.name$ -- 249
if$ -- 2789
int.to.chr$ -- 1
int.to.str$ -- 1
missing$ -- 221
newline$ -- 115
num.names$ -- 84
pop$ -- 474
preamble$ -- 1
purify$ -- 146
quote$ -- 0
skip$ -- 380
stack$ -- 0
substring$ -- 686
swap$ -- 544
text.length$ -- 1
text.prefix$ -- 0
top$ -- 0
type$ -- 177
warning$ -- 0
while$ -- 97
width$ -- 0
write$ -- 284
