\relax 
\bibstyle{ifacconf}
\citation{hamel2006attitude,fossen2011handbook,zhang2012mathematical}
\citation{fossen1994guidance,fossen2002marine,paull2014auv}
\citation{woodman2007introduction,zhang2012mathematical,grip2013nonlinear}
\citation{grip2013nonlinear}
\citation{liu2007survey,yassin2016recent}
\citation{vik2001nonlinear}
\citation{zhao2005discrete}
\citation{grip2013nonlinear}
\citation{bryne2014nonlinear}
\citation{fusini2014uniformly}
\newlabel{footnoteinfo}{{\hbox {$\star $}\relax }{1}}
\newlabel{UNIPA}{{*\relax }{1}}
\newlabel{UNITN}{{**\relax }{1}}
\global\@namedef{n@author@}{4}
\global\@namedef{n@collab@}{0}
\@writefile{toc}{\contentsline {section}{\numberline {1}Introduction}{1}\protected@file@percent }
\newlabel{sec:Introduction}{{1}{1}}
\citation{goebel2012hybrid}
\citation{ferrante2016state,li2018robust,sferlazza2018time,ferrante2019L2State}
\citation{bryne2014nonlinear}
\citation{grip2013nonlinear}
\citation{alonge2019hybrid}
\citation{zhao2005discrete,grip2013nonlinear}
\citation{ferrante2016state,ferrante2019L2State}
\@writefile{toc}{\contentsline {section}{\numberline {2}Sporadic Position Measurements in an Inertial Navigation System}{2}\protected@file@percent }
\newlabel{sec:Problem_statement}{{2}{2}}
\newlabel{eq:acceleration}{{1}{2}}
\newlabel{eq:position}{{2}{2}}
\newlabel{eq: output}{{3}{2}}
\newlabel{ass: sequence}{{1}{2}}
\newlabel{eq: sequence_constr}{{4}{2}}
\citation{goebel2012hybrid}
\citation{alonge2019hybrid}
\citation{alonge2019hybrid}
\newlabel{eq: model}{{5}{3}}
\newlabel{eq:model_flow}{{5a}{3}}
\newlabel{eq:model_jump}{{5b}{3}}
\newlabel{eq:model_output}{{5c}{3}}
\newlabel{eq:flow_jump_set}{{6}{3}}
\@writefile{toc}{\contentsline {section}{\numberline {3}Continuous-Discrete Observer Architecture}{3}\protected@file@percent }
\newlabel{sec:observer}{{3}{3}}
\@writefile{toc}{\contentsline {subsection}{\numberline {3.1}Observer dynamics}{3}\protected@file@percent }
\newlabel{eq:observer}{{8}{3}}
\newlabel{eq:observer_flow}{{8a}{3}}
\newlabel{eq:observer_jump}{{8b}{3}}
\@writefile{lof}{\contentsline {figure}{\numberline {1}{\ignorespaces Block diagram of speed and position error dynamics.}}{3}\protected@file@percent }
\newlabel{fig:cascade_error}{{1}{3}}
\@writefile{toc}{\contentsline {subsection}{\numberline {3.2}Error Dynamics and Main Result}{3}\protected@file@percent }
\newlabel{sec:Stability_conditions_gain_selection}{{3.2}{3}}
\newlabel{eq:error_vars}{{9}{3}}
\newlabel{eq:error_p}{{10}{3}}
\newlabel{eq:error_flow_p}{{10a}{3}}
\newlabel{eq:error_jump_p}{{10b}{3}}
\newlabel{eq:error_v}{{11}{3}}
\newlabel{eq:error_flow_v}{{11a}{3}}
\newlabel{eq:error_jump_v}{{11b}{3}}
\newlabel{eq:error_vtilde}{{12}{3}}
\citation{goebel2012hybrid}
\citation{goebel2012hybrid}
\citation{goebel2012hybrid}
\citation{CaiSCL09}
\citation{CaiSCL09}
\newlabel{eq:error_flow_vtilde}{{12a}{4}}
\newlabel{eq:error_jump_vtilde}{{12b}{4}}
\newlabel{eq: set A}{{13}{4}}
\newlabel{th:main}{{1}{4}}
\newlabel{eq:exp_estimation}{{14}{4}}
\@writefile{toc}{\contentsline {subsection}{\numberline {3.3}Proof of Theorem\nobreakspace  {}1\hbox {}}{4}\protected@file@percent }
\newlabel{sec:proof}{{3.3}{4}}
\newlabel{eq:hyb_gen}{{15}{4}}
\newlabel{eq:ISS_bound}{{17}{4}}
\newlabel{lem:position}{{1}{4}}
\newlabel{eq:ISS_position}{{18}{4}}
\newlabel{eq:flowbound0}{{19}{4}}
\newlabel{eq:flow_bound}{{20}{4}}
\newlabel{eq:ISSalmost}{{21}{4}}
\newlabel{lem:speed}{{2}{5}}
\newlabel{eq:ISS_speed}{{22}{5}}
\newlabel{eq:flowbound0_2}{{23}{5}}
\newlabel{eq:last_bound}{{25}{5}}
\newlabel{eq:GESbound}{{26}{5}}
\@writefile{lof}{\contentsline {figure}{\numberline {2}{\ignorespaces Reference position trajectory.}}{5}\protected@file@percent }
\newlabel{fig:trajectory}{{2}{5}}
\@writefile{lof}{\contentsline {figure}{\numberline {3}{\ignorespaces Reference yaw angle.}}{5}\protected@file@percent }
\newlabel{fig:yaw}{{3}{5}}
\@writefile{toc}{\contentsline {section}{\numberline {4}Hardware-in-the-loop Results}{5}\protected@file@percent }
\newlabel{sec:HIL}{{4}{5}}
\@writefile{lof}{\contentsline {figure}{\numberline {4}{\ignorespaces Evolution of the timer variable $\tau $ showing the sporadic nature of the sampled position measurements.}}{6}\protected@file@percent }
\newlabel{fig:timer}{{4}{6}}
\@writefile{lof}{\contentsline {figure}{\numberline {5}{\ignorespaces Actual and estimated positions in \emph  {test 1} (noise-free).}}{6}\protected@file@percent }
\newlabel{fig:pos_no_noise_0dot9}{{5}{6}}
\@writefile{lof}{\contentsline {figure}{\numberline {6}{\ignorespaces Actual and estimated velocities in \emph  {test 1} (noise-free).}}{6}\protected@file@percent }
\newlabel{fig:vel_no_noise_0dot9}{{6}{6}}
\@writefile{lof}{\contentsline {figure}{\numberline {7}{\ignorespaces Position errors ${\bm  {e}}_p$ (upper plot) and velocity errors ${\bm  {e}}_p$ (bottom plot) in \emph  {test 1} (noise-free).}}{6}\protected@file@percent }
\newlabel{fig:Lyap_no_noise_0dot9}{{7}{6}}
\@writefile{lof}{\contentsline {figure}{\numberline {8}{\ignorespaces Zooms of the transient and steady-state of the waveforms of Fig.\nobreakspace  {}7\hbox {}.}}{7}\protected@file@percent }
\newlabel{fig:part_Lyap_no_noise_0dot9}{{8}{7}}
\@writefile{lof}{\contentsline {figure}{\numberline {9}{\ignorespaces Actual and estimated positions in \emph  {test 2} (noisy).}}{7}\protected@file@percent }
\newlabel{fig:pos_yes_noise_0dot9}{{9}{7}}
\@writefile{lof}{\contentsline {figure}{\numberline {10}{\ignorespaces Actual and estimated velocities in \emph  {test 2} (noisy).}}{7}\protected@file@percent }
\newlabel{fig:vel_yes_noise_0dot9}{{10}{7}}
\@writefile{lof}{\contentsline {figure}{\numberline {11}{\ignorespaces Position errors ${\bm  {e}}_p$ (upper plot) and velocity errors ${\bm  {e}}_p$ (bottom plot) in \emph  {test 2} (noisy).}}{7}\protected@file@percent }
\newlabel{fig:Lyap_yes_noise_0dot9}{{11}{7}}
\@writefile{lof}{\contentsline {figure}{\numberline {12}{\ignorespaces Zooms of the transient and steady-state of the waveforms of Fig.\nobreakspace  {}11\hbox {}.}}{7}\protected@file@percent }
\newlabel{fig:part_Lyap_yes_noise_0dot9}{{12}{7}}
\@writefile{toc}{\contentsline {section}{\numberline {5}Conclusions}{7}\protected@file@percent }
\bibdata{ifacconf}
\bibcite{alonge2019hybrid}{{1}{2019}{{Alonge et~al.}}{{Alonge, D'Ippolito, Garraffa, and Sferlazza}}}
\bibcite{bryne2014nonlinear}{{2}{2014}{{Bryne et~al.}}{{Bryne, Fossen, and Johansen}}}
\bibcite{CaiSCL09}{{3}{2009}{{Cai and Teel}}{{}}}
\bibcite{ferrante2016state}{{4}{2016}{{Ferrante et~al.}}{{Ferrante, Gouaisbaut, Sanfelice, and Tarbouriech}}}
\bibcite{ferrante2019L2State}{{5}{2019}{{Ferrante et~al.}}{{Ferrante, Gouaisbaut, Sanfelice, and Tarbouriech}}}
\bibcite{fossen1994guidance}{{6}{1994}{{Fossen}}{{}}}
\bibcite{fossen2002marine}{{7}{2002}{{Fossen}}{{}}}
\bibcite{fossen2011handbook}{{8}{2011}{{Fossen}}{{}}}
\bibcite{fusini2014uniformly}{{9}{2014}{{Fusini et~al.}}{{Fusini, Fossen, and Johansen}}}
\bibcite{goebel2012hybrid}{{10}{2012}{{Goebel et~al.}}{{Goebel, Sanfelice, and Teel}}}
\bibcite{grip2013nonlinear}{{11}{2013}{{Grip et~al.}}{{Grip, Fossen, Johansen, and Saberi}}}
\bibcite{hamel2006attitude}{{12}{2006}{{Hamel and Mahony}}{{}}}
\bibcite{li2018robust}{{13}{2018}{{Li et~al.}}{{Li, Phillips, and Sanfelice}}}
\bibcite{liu2007survey}{{14}{2007}{{Liu et~al.}}{{Liu, Darabi, Banerjee, and Liu}}}
\bibcite{paull2014auv}{{15}{2014}{{Paull et~al.}}{{Paull, Saeedi, Seto, and Li}}}
\bibcite{sferlazza2018time}{{16}{2018}{{Sferlazza et~al.}}{{Sferlazza, Tarbouriech, and Zaccarian}}}
\bibcite{vik2001nonlinear}{{17}{2001}{{Vik and Fossen}}{{}}}
\bibcite{woodman2007introduction}{{18}{2007}{{Woodman}}{{}}}
\bibcite{yassin2016recent}{{19}{2016}{{Yassin et~al.}}{{Yassin, Nasser, Awad, Al-Dubai, Liu, Yuen, Raulefs, and Aboutanios}}}
\bibcite{zhang2012mathematical}{{20}{2012}{{Zhang et~al.}}{{Zhang, Ghogho, and Yuan}}}
\bibcite{zhao2005discrete}{{21}{2005}{{Zhao and Slotine}}{{}}}
\@writefile{lof}{\contentsline {figure}{\numberline {13}{\ignorespaces Waveforms of position error ${\bm  {e}}_p$ (upper plot) and of velocity error ${\bm  {e}}_p$ (bottom plot) for different values of $\alpha _p$ and $\alpha _v$.}}{8}\protected@file@percent }
\newlabel{fig:Lyap_compare}{{13}{8}}
\global\c@lastpage=8
\global\NAT@numbersfalse
