\relax 
\citation{peaucelle_adaptive_2018}
\citation{peaucelle_adaptive_2018}
\citation{peaucelle_adaptive_2018}
\@writefile{toc}{\contentsline {section}{\numberline {1}Problem Statement}{1}\protected@file@percent }
\newlabel{sec:PS}{{1}{1}}
\newlabel{system}{{1}{1}}
\newlabel{out}{{2}{1}}
\citation{peaucelle_adaptive_2018}
\newlabel{Assumption1}{{1}{2}}
\newlabel{bound1}{{3}{2}}
\newlabel{lemma1}{{4}{2}}
\@writefile{toc}{\contentsline {section}{\numberline {2}Main Result}{2}\protected@file@percent }
\newlabel{raggio1}{{5}{2}}
\newlabel{raggio2}{{6}{2}}
\newlabel{pdefinite}{{7}{2}}
\citation{peaucelle_adaptive_2018}
\citation{peaucelle_adaptive_2018}
\newlabel{LMI}{{8}{3}}
\newlabel{modification}{{9}{3}}
\newlabel{result1}{{10}{3}}
\newlabel{lyap}{{11}{3}}
\newlabel{eq1}{{12}{3}}
\newlabel{eq2}{{13}{3}}
\citation{peaucelle_adaptive_2018}
\newlabel{eq3}{{14}{4}}
\@writefile{toc}{\contentsline {section}{\numberline {3}Problem Statement v2}{4}\protected@file@percent }
\bibstyle{plain}
\bibdata{references}
\bibcite{peaucelle_adaptive_2018}{1}
\@writefile{toc}{\contentsline {section}{\numberline {4}Main result v2}{5}\protected@file@percent }
\newlabel{raggio1}{{15}{5}}
\newlabel{raggio2}{{16}{5}}
\newlabel{LMI}{{17}{5}}
\newlabel{modification}{{18}{5}}
